%YAML 1.1
%TAG !u! tag:unity3d.com,2011:
--- !u!1045 &1
EditorBuildSettings:
  m_ObjectHideFlags: 0
  serializedVersion: 2
  m_Scenes:
  - enabled: 1
    path: Assets/Scenes/MainScreen.unity
    guid: 5bc51dcb986c0c343aea417f6b77c202
  - enabled: 1
    path: Assets/Scenes/Mulai.unity
    guid: 297e9bd5e1ea6bf4099b1e0faa0a50be
  - enabled: 1
    path: Assets/Scenes/Level1.unity
    guid: de2a9ec195542404791ffb4b63694f04
  - enabled: 1
    path: Assets/Scenes/Level1_1.unity
    guid: 2018846a81de055469b6eec7b28862b6
  - enabled: 1
    path: Assets/Scenes/Level2.unity
    guid: b8112af0983ec6f4e8209a028bd0917a
  - enabled: 1
    path: Assets/Scenes/Level2_2.unity
    guid: 4f111951c8c278c42bb143f41d498563
  - enabled: 1
    path: Assets/Scenes/Level3.unity
    guid: 8fe3326c146997b4bbd85c769a58b9e5
  - enabled: 1
    path: Assets/Scenes/Level3_3.unity
    guid: d6e016bacc43bf8479a15ef336b0b57c
  - enabled: 1
    path: Assets/Scenes/Level4.unity
    guid: a2e8276009e2dae4bb09c1fecbddc9bc
  - enabled: 1
    path: Assets/Scenes/Level4_4.unity
    guid: a9585afd95680d04e806fd4822e38786
  - enabled: 1
    path: Assets/Scenes/Level5.unity
    guid: 3513803e80c3a8e408da4d888e334697
  - enabled: 1
    path: Assets/Scenes/Play/Play1/Level1_play.unity
    guid: 2cda990e2423bbf4892e6590ba056729
  - enabled: 1
    path: Assets/Scenes/Play/Play1/Level1-1_play.unity
    guid: e6dea27f1b1d1ee4aa65fb8406f53d75
  - enabled: 1
    path: Assets/Scenes/Play/Play2/Level2_play.unity
    guid: 728dbf53054472446851b3e47afeb71e
  - enabled: 1
    path: Assets/Scenes/Play/Play2/Level2-2_play.unity
    guid: b45614b14016b7a48ab1213dee52c03a
  - enabled: 1
    path: Assets/Scenes/Play/Play3/Level3_Play.unity
    guid: 68f898db3bb30c74897809a15eba0806
  - enabled: 1
    path: Assets/Scenes/Play/Play3/Level3_3Play.unity
    guid: 0f21cba72aff7284f9379437016f9f21
  - enabled: 1
    path: Assets/Scenes/Play/Play4/Level4_Play.unity
    guid: d5c1e93a8377c2e4ba8295fdec1ccd5c
  - enabled: 1
    path: Assets/Scenes/Play/Play4/Level4_4Play.unity
    guid: 634e125e712432246a2b29bc593527dd
  - enabled: 1
    path: Assets/Scenes/Play/Play5/Level5_Play.unity
    guid: 0fa8fdb3b44c36d45918d2a3eafe18af
  - enabled: 1
    path: Assets/Scenes/Play/Hasil.unity
    guid: 0d056c41ee29c86429ea7a7af756909e
  m_configObjects: {}
